{
  "Name": "Ledger Live",
  "Wallet": "Ledger Live",
  "Header": [
    "Operation Date",
    "Currency Ticker",
    "Operation Type",
    "Operation Amount",
    "Operation Fees",
    "Operation Hash",
    "Account Name",
    "Account xpub"
  ],
  "TX": [
    {
      "Date": {
        "Index": 0,
        "Format": "2006-01-02T15:04:05.000Z"
      },
      "ID": {
        "Indexes": [
          5
        ],
        "MergeBy": true
      },
      "Kinds": [
        {
          "Key": {
            "Index": 2
          },
          "Categ": {
            "BOND": "Fees",
            "DELEGATE": "Fees",
            "FEES": "Fees",
            "FREEZE": "Fees",
            "IN": "Deposits",
            "NOMINATE": "Fees",
            "OUT": "Withdrawals",
            "REVEAL": "Fees",
            "REWARD": "Minings",
            "REWARD_PAYOUT": "Minings",
            "VOTE": "Fees"
          }
        }
      ],
      "Items": {
        "Fee": [
          {
            "Amount": [
              {
                "Operation": "Add",
                "Value": {
                  "Index": 4
                }
              }
            ],
            "Currency": {
              "Index": 1
            },
            "Skip": [
              {
                "Name": "Found",
                "Value": {
                  "Index": 2
                },
                "Logic": true,
                "List": [
                  "IN",
                  "REWARD_PAYOUT",
                  "REWARD"
                ]
              }
            ]
          }
        ],
        "From": [
          {
            "Amount": [
              {
                "Operation": "Add",
                "Value": {
                  "Index": 3
                }
              },
              {
                "Operation": "Sub",
                "Value": {
                  "Index": 4
                }
              }
            ],
            "Currency": {
              "Index": 1
            },
            "Skip": [
              {
                "Name": "Found",
                "Value": {
                  "Index": 2
                },
                "List": [
                  "OUT"
                ]
              }
            ]
          }
        ],
        "To": [
          {
            "Amount": [
              {
                "Operation": "Add",
                "Value": {
                  "Index": 3
                }
              }
            ],
            "Currency": {
              "Index": 1
            },
            "Skip": [
              {
                "Name": "Found",
                "Value": {
                  "Index": 2
                },
                "List": [
                  "IN",
                  "REWARD_PAYOUT",
                  "REWARD"
                ]
              }
            ]
          }
        ]
      },
      "Notes": [
        {
          "Index": 6
        },
        {
          "Index": 7
        },
        {
          "Index": 5
        }
      ]
    }
  ]
}