{
  "Name": "Nexo",
  "Wallet": "Nexo",
  "Header": [
    "Transaction",
    "Type",
    "Input Currency",
    "Input Amount",
    "Output Currency",
    "Output Amount",
    "USD Equivalent",
    "Details",
    "Date / Time (UTC)"
  ],
  "TX": [
    {
      "Date": {
        "Index": 8,
        "Format": "2006-01-02 15:04:05"
      },
      "ID": {
        "Indexes": [0]
      },
      "Kinds": [
        {
          "Key": {
            "Index": 1
          },
          "Categ": {
            "Bonus": "Interests",
            "Deposit": "Deposits",
            "DepositToExchange": "DontCare",
            "Dividend": "Interests",
            "Exchange": "Exchanges",
            "Exchange Cashback": "CommercialRebates",
            "ExchangeDepositedOn": "DontCare",
            "FixedTermInterest": "Interests",
            "Interest": "Interests",
            "LockingTermDeposit": "DontCare",
            "ReferralBonus": "Referrals",
            "UnlockingTermDeposit": "DontCare",
            "Withdrawal": "Withdrawals"
          }
        }
      ],
      "Items": {
        "From": [
          {
            "Amount": [
              {
                "Operation": "Add",
                "Value": {
                  "Index": 3
                }
              }
            ],
            "Currency": {
              "Index": 2
            },
            "Skip": [
              {
                "Name": "Found",
                "Strict": true,
                "Value": {
                  "Index": 1
                },
                "List": ["Exchange", "ExchangeDepositedOn", "LockingTermDeposit", "UnlockingTermDeposit", "Withdrawal"]
              }
            ]
          }
        ],
        "To": [
          {
            "Amount": [
              {
                "Operation": "Add",
                "Value": {
                  "Index": 5
                }
              }
            ],
            "Currency": {
              "Index": 4
            },
            "Skip": [
              {
                "Name": "Found",
                "Strict": true,
                "Value": {
                  "Index": 1
                },
                "List": [
                  "Bonus",
                  "Deposit",
                  "DepositToExchange",
                  "Dividend",
                  "Exchange",
                  "Exchange Cashback",
                  "ExchangeDepositedOn",
                  "FixedTermInterest",
                  "Interest",
                  "LockingTermDeposit",
                  "ReferralBonus",
                  "UnlockingTermDeposit"
                ]
              }
            ]
          }
        ]
      },
      "CurrencyReplace": ["EURX", "EUR"],
      "Notes": [
        {
          "Index": 7
        }
      ]
    }
  ]
}
