{
  "Name": "Poloniex Withdrawals",
  "Wallet": "Poloniex",
  "Header": [
    "Date",
    "Currency",
    "Amount",
    "Fee Deducted",
    "Amount - Fee",
    "Address",
    "Status"
  ],
  "TX": [
    {
      "Date": {
        "Index": 0,
        "Format": "2006-01-02 15:04:05"
      },
      "Kinds": [
        {
          "Default": "Withdrawals"
        }
      ],
      "Items": {
        "Fee": [
          {
            "Amount": [
              {
                "Operation": "Add",
                "Value": {
                  "Index": 3
                }
              }
            ],
            "Currency": {
              "Index": 1
            }
          }
        ],
        "From": [
          {
            "Amount": [
              {
                "Operation": "Add",
                "Value": {
                  "Index": 4
                }
              }
            ],
            "Currency": {
              "Index": 1
            }
          }
        ]
      },
      "Notes": [
        {
          "Index": 5
        },
        {
          "Index": 6
        }
      ]
    }
  ]
}