{
  "Name": "Monero Wallet",
  "Wallet": "Monero",
  "Header": [
    "blockHeight",
    "epoch",
    "date",
    "direction",
    "amount",
    "atomicAmount",
    "fee",
    "txid",
    "label",
    "subaddrAccount",
    "paymentId",
    "description"
  ],
  "TX": [
    {
      "Date": {
        "Index": 1,
        "Format": "epoch"
      },
      "ID": {
        "Indexes": [7]
      },
      "Kinds": [
        {
          "Key": {
            "Index": 3
          },
          "Categ": {
            "in": "Deposits",
            "out": "Withdrawals"
          }
        }
      ],
      "Items": {
        "From": [
          {
            "Amount": [
              {
                "Operation": "Add",
                "Value": {
                  "Index": 5,
                  "Separator": "",
                  "SubIndex": 0,
                  "Shift": -12
                }
              }
            ],
            "Currency": {
              "Name": "XMR",
              "Index": 0
            },
            "Skip": [
              {
                "Name": "Found",
                "Value": {
                  "Index": 3
                },
                "List": ["out"]
              }
            ]
          }
        ],
        "To": [
          {
            "Amount": [
              {
                "Operation": "Add",
                "Value": {
                  "Index": 5,
                  "Separator": "",
                  "SubIndex": 0,
                  "Shift": -12
                }
              }
            ],
            "Currency": {
              "Name": "XMR",
              "Index": 0
            },
            "Skip": [
              {
                "Name": "Found",
                "Value": {
                  "Index": 3
                },
                "List": ["in"]
              }
            ]
          }
        ],
        "Fee": [
          {
            "Amount": [
              {
                "Operation": "Add",
                "Value": {
                  "Index": 6
                }
              }
            ],
            "Currency": {
              "Name": "XMR",
              "Index": 0
            },
            "Skip": [
              {
                "Name": "Found",
                "Value": {
                  "Index": 3
                },
                "List": ["out"]
              }
            ]
          }
        ]
      },
      "Notes": [
        {
          "Index": 0
        },
        {
          "Index": 8
        },
        {
          "Index": 9
        },
        {
          "Index": 10
        }
      ]
    }
  ]
}
