{
  "Name": "Poloniex Deposits",
  "Wallet": "Poloniex",
  "Header": [
    "Date",
    "Currency",
    "Amount",
    "Address",
    "Status"
  ],
  "TX": [
    {
      "Date": {
        "Index": 0,
        "Format": "2006-01-02 15:04:05"
      },
      "Kinds": [
        {
          "Default": "Deposits"
        }
      ],
      "Items": {
        "To": [
          {
            "Amount": [
              {
                "Operation": "Add",
                "Value": {
                  "Index": 2
                }
              }
            ],
            "Currency": {
              "Index": 1
            }
          }
        ]
      },
      "Notes": [
        {
          "Index": 3
        },
        {
          "Index": 4
        }
      ]
    }
  ]
}