{
  "Name": "Crypto.com App",
  "Wallet": "Crypto.com App",
  "Header": [
    "Timestamp (UTC)",
    "Transaction Description",
    "Currency",
    "Amount",
    "To Currency",
    "To Amount",
    "Native Currency",
    "Native Amount",
    "Native Amount (in USD)",
    "Transaction Kind"
  ],
  "TX": [
    {
      "Date": {
        "Index": 0,
        "Format": "2006-01-02 15:04:05"
      },
      "ID": {
        "MergeBy": true
      },
      "Kinds": [
        {
          "Key": {
            "Index": 9
          },
          "Categ": {
            "admin_wallet_debited": "Withdrawals",
            "admin_wallet_credited": "Deposits",
            "airdrop_locked": "DontCare",
            "airdrop_to_exchange_transfer": "CommercialRebates",
            "campaign_reward": "CommercialRebates",
            "card_cashback_reverted": "CommercialRebates",
            "card_top_up": "CashOut",
            "council_node_deposit_created": "DontCare",
            "council_node_deposit_withdrawn": "DontCare",
            "council_node_interest_created": "Interests",
            "cro_airdrop_adjusted": "Adjustments",
            "crypto_deposit": "Deposits",
            "crypto_earn_extra_interest_paid": "Interests",
            "crypto_earn_interest_paid": "Interests",
            "crypto_earn_program_created": "DontCare",
            "crypto_earn_program_withdrawn": "DontCare",
            "crypto_exchange": "Exchanges",
            "crypto_payment": "CashOut",
            "crypto_purchase": "CashIn",
            "crypto_to_exchange_transfer": "Withdrawals",
            "crypto_viban": "CashOut",
            "crypto_viban_exchange": "CashOut",
            "crypto_wallet_swap_credited": "Exchanges",
            "crypto_wallet_swap_debited": "Exchanges",
            "crypto_withdrawal": "Withdrawals",
            "dust_conversion_credited": "Exchanges",
            "dust_conversion_debited": "Exchanges",
            "dynamic_coin_swap_bonus_exchange_deposit": "DontCare",
            "dynamic_coin_swap_credited": "DontCare",
            "dynamic_coin_swap_debited": "DontCare",
            "exchange_to_crypto_transfer": "Deposits",
            "gift_card_reward": "CommercialRebates",
            "interest_swap_credited": "Exchanges",
            "interest_swap_debited": "Exchanges",
            "lockup_lock": "DontCare",
            "lockup_swap_credited": "Exchanges",
            "lockup_swap_debited": "Exchanges",
            "lockup_swap_rebate": "DontCare",
            "lockup_unlock": "DontCare",
            "lockup_upgrade": "DontCare",
            "mco_stake_reward": "Interests",
            "pay_checkout_reward": "CommercialRebates",
            "recurring_buy_order": "CashIn",
            "referral_bonus": "Referrals",
            "referral_card_cashback": "CommercialRebates",
            "referral_commission": "Referrals",
            "referral_crypto_cashback": "CommercialRebates",
            "referral_gift": "CommercialRebates",
            "reimbursement": "CommercialRebates",
            "reimbursement_reverted": "CommercialRebates",
            "rewards_platform_deposit_credited": "Minings",
            "staking_reward": "Interests",
            "supercharger_deposit": "DontCare",
            "supercharger_reward_to_app_credited": "Minings",
            "supercharger_withdrawal": "DontCare",
            "transfer_cashback": "CommercialRebates",
            "transfer_cashback_reverted": "CommercialRebates",
            "viban_card_top_up": "DontCare",
            "viban_deposit": "Deposits",
            "viban_purchase": "Exchanges",
            "viban_withdrawal": "DontCare"
          }
        },
        {
          "Key": {
            "Index": 9
          },
          "Categ": {
            "crypto_transfer": "Deposits"
          },
          "Skip": [
            {
              "Name": "Found",
              "Value": {
                "Index": 1
              },
              "List": ["From"]
            }
          ]
        },
        {
          "Key": {
            "Index": 9
          },
          "Categ": {
            "crypto_transfer": "Withdrawals"
          },
          "Skip": [
            {
              "Name": "Found",
              "Value": {
                "Index": 1
              },
              "List": ["To"]
            }
          ]
        }
      ],
      "Items": {
        "From": [
          {
            "Amount": [
              {
                "Operation": "Add",
                "Value": {
                  "Index": 3
                }
              }
            ],
            "Currency": {
              "Index": 2
            },
            "Skip": [
              {
                "Name": "Found",
                "Value": {
                  "Index": 9
                },
                "List": [
                  "dust_conversion_credited",
                  "dust_conversion_debited",
                  "interest_swap_credited",
                  "interest_swap_debited",
                  "lockup_swap_credited",
                  "lockup_swap_debited",
                  "crypto_wallet_swap_credited",
                  "crypto_wallet_swap_debited",
                  "crypto_exchange",
                  "viban_purchase",
                  "card_top_up",
                  "crypto_payment",
                  "crypto_withdrawal",
                  "card_cashback_reverted",
                  "transfer_cashback_reverted",
                  "reimbursement_reverted",
                  "crypto_to_exchange_transfer",
                  "supercharger_deposit",
                  "crypto_viban",
                  "crypto_viban_exchange",
                  "crypto_transfer"
                ]
              },
              {
                "Name": "Positivity",
                "Value": {
                  "Index": 0
                }
              }
            ]
          },
          {
            "Amount": [
              {
                "Operation": "Add",
                "Value": {
                  "Index": 7
                }
              }
            ],
            "Currency": {
              "Index": 6
            },
            "Skip": [
              {
                "Name": "Found",
                "Value": {
                  "Index": 9
                },
                "List": ["crypto_purchase", "staking_reward", "recurring_buy_order"]
              }
            ]
          }
        ],
        "To": [
          {
            "Amount": [
              {
                "Operation": "Add",
                "Value": {
                  "Index": 3
                }
              }
            ],
            "Currency": {
              "Index": 2
            },
            "Skip": [
              {
                "Name": "Found",
                "Value": {
                  "Index": 9
                },
                "List": [
                  "dust_conversion_credited",
                  "dust_conversion_debited",
                  "interest_swap_credited",
                  "interest_swap_debited",
                  "lockup_swap_credited",
                  "lockup_swap_debited",
                  "crypto_wallet_swap_credited",
                  "crypto_wallet_swap_debited",
                  "crypto_deposit",
                  "viban_deposit",
                  "exchange_to_crypto_transfer",
                  "admin_wallet_credited",
                  "referral_card_cashback",
                  "transfer_cashback",
                  "reimbursement",
                  "crypto_earn_interest_paid",
                  "crypto_earn_extra_interest_paid",
                  "gift_card_reward",
                  "pay_checkout_reward",
                  "referral_gift",
                  "referral_bonus",
                  "mco_stake_reward",
                  "supercharger_withdrawal",
                  "rewards_platform_deposit_credited",
                  "crypto_purchase",
                  "staking_reward",
                  "campaign_reward",
                  "crypto_transfer"
                ]
              },
              {
                "Name": "Positivity",
                "Value": {
                  "Index": 0
                },
                "Logic": true
              }
            ]
          },
          {
            "Amount": [
              {
                "Operation": "Add",
                "Value": {
                  "Index": 5
                }
              }
            ],
            "Currency": {
              "Index": 4
            },
            "Skip": [
              {
                "Name": "Found",
                "Value": {
                  "Index": 9
                },
                "List": ["crypto_exchange", "recurring_buy_order", "viban_purchase"]
              }
            ]
          },
          {
            "Amount": [
              {
                "Operation": "Add",
                "Value": {
                  "Index": 7
                }
              }
            ],
            "Currency": {
              "Index": 6
            },
            "Skip": [
              {
                "Name": "Found",
                "Value": {
                  "Index": 9
                },
                "List": ["card_top_up", "crypto_payment", "crypto_viban", "crypto_viban_exchange"]
              }
            ]
          }
        ]
      },
      "Notes": [
        {
          "Index": 9
        },
        {
          "Index": 1
        }
      ]
    }
  ]
}
