{
  "Name": "Kraken",
  "Wallet": "Kraken",
  "Header": ["txid", "refid", "time", "type", "subtype", "aclass", "asset", "amount", "fee", "balance"],
  "MergeProcessors": ["SingletonExchange"],
  "TX": [
    {
      "Date": {
        "Index": 2,
        "Format": "2006-01-02 15:04:05"
      },
      "ID": {
        "Indexes": [1],
        "MergeBy": true,
        "MergeProcessors": ["NegativeMining"]
      },
      "Kinds": [
        {
          "Key": {
            "Index": 3
          },
          "Categ": {
            "deposit": "DontCare"
          },
          "Skip": [
            {
              "Name": "Found",
              "Strict": true,
              "Value": {
                "Index": 3
              },
              "List": ["deposit"]
            },
            {
              "Name": "Found",
              "Strict": true,
              "Value": {
                "Index": 6
              },
              "List": ["ZEUR"]
            }
          ]
        },
        {
          "Key": {
            "Index": 3
          },
          "Categ": {
            "transfer": "DontCare"
          },
          "Skip": [
            {
              "Name": "Found",
              "Value": {
                "Index": 4
              },
              "Logic": true,
              "Strict": true,
              "List": ["", "spotfromfutures", "spottofutures"]
            }
          ]
        },
        {
          "Key": {
            "Index": 3
          },
          "Categ": {
            "transfer": "Deposits"
          },
          "Skip": [
            {
              "Name": "Found",
              "Value": {
                "Index": 4
              },
              "Strict": true,
              "List": ["spotfromfutures"]
            }
          ]
        },
        {
          "Key": {
            "Index": 3
          },
          "Categ": {
            "transfer": "Withdrawals"
          },
          "Skip": [
            {
              "Name": "Found",
              "Value": {
                "Index": 4
              },
              "Strict": true,
              "List": ["spottofutures"]
            }
          ]
        },
        {
          "Key": {
            "Index": 3
          },
          "Categ": {
            "deposit": "Deposits",
            "dividend": "AirDrops",
            "margin": "Exchanges",
            "receive": "Exchanges",
            "rollover": "Fees",
            "settled": "Exchanges",
            "spend": "Exchanges",
            "staking": "Minings",
            "trade": "Exchanges",
            "transfer": "AirDrops",
            "withdrawal": "Withdrawals"
          }
        }
      ],
      "Items": {
        "From": [
          {
            "Amount": [
              {
                "Operation": "Add",
                "Value": {
                  "Index": 7
                }
              },
              {
                "Operation": "Sub",
                "Value": {
                  "Index": 8
                }
              }
            ],
            "Currency": {
              "Index": 6
            },
            "Skip": [
              {
                "Name": "Found",
                "Value": {
                  "Index": 3
                },
                "List": ["spend", "trade"]
              },
              {
                "Name": "Found",
                "Strict": true,
                "Value": {
                  "Index": 6
                },
                "List": ["ZEUR"]
              },
              {
                "Name": "Positivity",
                "Value": {
                  "Index": 7
                }
              },
              {
                "Name": "Found",
                "Value": {
                  "Index": 0
                },
                "Logic": true,
                "Strict": true,
                "List": [""]
              }
            ]
          },
          {
            "Amount": [
              {
                "Operation": "Add",
                "Value": {
                  "Index": 7
                }
              }
            ],
            "Currency": {
              "Index": 6
            },
            "Skip": [
              {
                "Name": "Found",
                "Value": {
                  "Index": 3
                },
                "List": ["trade", "spend", "margin", "settled", "receive", "withdrawal", "transfer"]
              },
              {
                "Name": "Found",
                "Logic": true,
                "Strict": true,
                "Value": {
                  "Index": 6
                },
                "List": ["ZEUR"]
              },
              {
                "Name": "Positivity",
                "Value": {
                  "Index": 7
                }
              },
              {
                "Name": "Found",
                "Value": {
                  "Index": 0
                },
                "Logic": true,
                "Strict": true,
                "List": [""]
              }
            ]
          },
          {
            "Amount": [
              {
                "Operation": "Add",
                "Value": {
                  "Index": 7
                }
              }
            ],
            "Currency": {
              "Index": 6
            },
            "Skip": [
              {
                "Name": "Found",
                "Value": {
                  "Index": 3
                },
                "List": ["staking"]
              },
              {
                "Name": "Positivity",
                "Value": {
                  "Index": 7
                }
              }
            ]
          }
        ],
        "To": [
          {
            "Amount": [
              {
                "Operation": "Add",
                "Value": {
                  "Index": 7
                }
              }
            ],
            "Currency": {
              "Index": 6
            },
            "Skip": [
              {
                "Name": "Found",
                "Value": {
                  "Index": 3
                },
                "List": ["deposit"]
              },
              {
                "Name": "Found",
                "Strict": true,
                "Value": {
                  "Index": 6
                },
                "List": ["ZEUR"]
              },
              {
                "Name": "Positivity",
                "Logic": true,
                "Value": {
                  "Index": 7
                }
              },
              {
                "Name": "Found",
                "Value": {
                  "Index": 0
                },
                "Logic": true,
                "Strict": true,
                "List": [""]
              }
            ]
          },
          {
            "Amount": [
              {
                "Operation": "Add",
                "Value": {
                  "Index": 7
                }
              },
              {
                "Operation": "Sub",
                "Value": {
                  "Index": 8
                }
              }
            ],
            "Currency": {
              "Index": 6
            },
            "Skip": [
              {
                "Name": "Found",
                "Value": {
                  "Index": 3
                },
                "List": ["trade"]
              },
              {
                "Name": "Found",
                "Strict": true,
                "Value": {
                  "Index": 6
                },
                "List": ["ZEUR"]
              },
              {
                "Name": "Positivity",
                "Logic": true,
                "Value": {
                  "Index": 7
                }
              },
              {
                "Name": "Found",
                "Value": {
                  "Index": 0
                },
                "Logic": true,
                "Strict": true,
                "List": [""]
              }
            ]
          },
          {
            "Amount": [
              {
                "Operation": "Add",
                "Value": {
                  "Index": 7
                }
              }
            ],
            "Currency": {
              "Index": 6
            },
            "Skip": [
              {
                "Name": "Found",
                "Value": {
                  "Index": 3
                },
                "List": ["trade", "spend", "margin", "settled", "receive", "deposit", "staking", "transfer", "dividend"]
              },
              {
                "Name": "Found",
                "Logic": true,
                "Strict": true,
                "Value": {
                  "Index": 6
                },
                "List": ["ZEUR"]
              },
              {
                "Name": "Positivity",
                "Logic": true,
                "Value": {
                  "Index": 7
                }
              },
              {
                "Name": "Found",
                "Value": {
                  "Index": 0
                },
                "Logic": true,
                "Strict": true,
                "List": [""]
              }
            ]
          }
        ],
        "Fee": [
          {
            "Amount": [
              {
                "Operation": "Add",
                "Value": {
                  "Index": 8
                }
              }
            ],
            "Currency": {
              "Index": 6
            },
            "Skip": [
              {
                "Name": "Found",
                "Value": {
                  "Index": 0
                },
                "Logic": true,
                "Strict": true,
                "List": [""]
              },
              {
                "Name": "Found",
                "Value": {
                  "Index": 6
                },
                "Logic": true,
                "List": ["EUR"]
              }
            ]
          }
        ]
      },
      "CurrencyReplace": [
        "ADA.S",
        "ADA",
        "ALGO.S",
        "ALGO",
        "ATOM.S",
        "ATOM",
        "DOT.P",
        "DOT",
        "DOT.S",
        "DOT",
        "ETH2.S",
        "ETH",
        "ETH2",
        "ETH",
        "EUR.HOLD",
        "EUR",
        "EUR.M",
        "EUR",
        "FLOW.S",
        "FLOW",
        "FLOWH",
        "FLOW",
        "FLOWH.S",
        "FLOW",
        "KAVA.S",
        "KAVA",
        "KFEE",
        "FEE",
        "KSM.S",
        "KSM",
        "REPV2",
        "REP",
        "SOL.S",
        "SOL",
        "USD.HOLD",
        "USD",
        "USD.M",
        "USD",
        "XBT",
        "BTC",
        "XBT.M",
        "BTC",
        "XETC",
        "ETC",
        "XETH",
        "ETH",
        "XLTC",
        "LTC",
        "XMLN",
        "MLN",
        "XREP",
        "REP",
        "XTZ.S",
        "XTZ",
        "XXBT",
        "BTC",
        "XXDG",
        "DOGE",
        "XXLM",
        "XLM",
        "XXMR",
        "XMR",
        "XXRP",
        "XRP",
        "XZEC",
        "ZEC",
        "ZAUD",
        "AUD",
        "ZCAD",
        "CAD",
        "ZEUR",
        "EUR",
        "ZGBP",
        "GBP",
        "ZJPY",
        "JPY",
        "ZUSD",
        "USD"
      ],
      "Notes": [
        {
          "Index": 3
        },
        {
          "Index": 4
        },
        {
          "Index": 0
        }
      ]
    }
  ]
}
